Department Number, Sears Store Number, Class, SKU, Sears SKU, Description, Our Price
817  ,1438  ,"001","001053     ","D53M73471001","SILVER CARE CLOTH        ",4.95       
817  ,1438  ,"001","001055     ","D53M73471002","JEWELRY CARE CLOTH-WHITE ",4.95       
817  ,1438  ,"001","001056     ","D53M73969001","WATCH CARE KIT           ",10.95      
817  ,1438  ,"019","019015     ","D53M73141008","20MM BLK SILICONE SPORT  ",11.95      
817  ,1438  ,"022","022341     ","D53M73041007","F30-1320-20MM L.BRN FLAT ",25.99      
817  ,1438  ,"024","024326     ","D53M73012012","F60-0110 10MM BLK LUXURY ",17.99      
817  ,1438  ,"024","024398     ","D53M73054013","F10-0113 13MM BLK LUXURY ",34.99      
817  ,1438  ,"042","042581     ","D53M73172016","PWLS63-1520/20MM D.BROWN ",27.99      
817  ,1438  ,"042","042871     ","D53M73186001","VMS67L-0120/20MM BLK CHRN",19.99      
817  ,1438  ,"042","042904     ","D53M73188002","LPDS60L-0120 20MM BLK LPD",27.99      
817  ,1438  ,"042","042913     ","D53M73193001","PS31-0122 22MM BLK CROCO ",27.99      
817  ,1438  ,"042","042916     ","D53M73193002","PS31-1522 22MM DBRN CROCO",27.99      
817  ,1438  ,"042","042924     ","D53M73196002","WRPAN-1326 26MM L. BROWN ",36.99      
817  ,1438  ,"044","044349     ","D53M73012016","F60-0112 12MM BLK LUXURY ",17.99      
817  ,1438  ,"144","144303     ","D53M73098006","124-YL/G.PLATE/TELESCOPIC",24.99      
817  ,1438  ,"144","144305     ","D53M73093003","132-SL/SS/SHINY/11MM BODY",17.99      
817  ,1438  ,"148","148082     ","D53M73097026","540-YC/IPG 16/1-5 MIRROR ",24.99      
817  ,1438  ,"148","148308     ","D53M73097033","532-YL/IPG/SIDES SHINY   ",24.99      
817  ,1438  ,"249","249237     ","D53M73888002","ARMOR WALLET-SOLID COLORS",9.99       
817  ,1438  ,"249","249434     ","D53M73899001","TEXTING DICTIONARY       ",4.99       
817  ,1438  ,"249","249455     ","D53M73960006","LDS FLEUR DE FASH 7 DAY  ",8.99       
817  ,1438  ,"249","249458     ","D53M73986012","EAT YOUR PEAS YOUNG PERSN",9.99       
817  ,1438  ,"249","249464     ","D53M73986005","EAT YOUR PEAS SOMEONE SPC",9.99       
817  ,1438  ,"249","249466     ","D53M73986007","EAT YOUR PEAS GRANDKIDS  ",9.99       
817  ,1438  ,"249","249467     ","D53M73986008","EAT YOUR PEAS TOUGH TIMES",9.99       
817  ,1438  ,"249","249601     ","D53M73504004","TRENDY JEWELED STYLUS    ",3.99       
817  ,1438  ,"252","252473     ","D53M73549007","BUTTERFLY PURSE HANGER   ",12.99      
817  ,1438  ,"672","672304     ","            ","TK  32.0MM CRYSTAL       ",1.00       
817  ,1438  ,"712","712137     ","D53M73682001","SQUARE SILVER WITH BLK   ",35.00      
817  ,1438  ,"717","717092     ","D53M73954005","CLEAR SQUARE DESK ALARM  ",7.99       
817  ,1438  ,"755","755217     ","D53M73987001","EMERY CHERRY 5 PC WATCH  ",29.99      
817  ,1438  ,"800","800335     ","D53M73811335","335 TS                   ",9.99       
817  ,1438  ,"800","800395     ","D53M73811395","395 VS                   ",9.99       
817  ,1438  ,"800","800430     ","D53M73811430","CR2430 CU   LITHIUM      ",9.99       
817  ,1438  ,"800","800632     ","D53M73811632","CR1632 TS  LITHIUM       ",9.99       
817  ,1438  ,"840","840537     ","D53M73848537","A23BPZ-2                 ",7.39       
817  ,1438  ,"913","913333     ","            ","EK 145320 GASKET 21 X .6 ",.39        
817  ,1438  ,"913","913347     ","            ","EK 145320 GASKET 24 X .5 ",.50        
817  ,1438  ,"913","913352     ","            ","EK 145320 GASKET 25 X .5 ",.39        
817  ,1438  ,"913","913357     ","            ","EK 145320 GASKET 26 X .5 ",.60        
817  ,1438  ,"913","913372     ","            ","EK 145320 GASKET 29 X .5 ",.40        
817  ,1438  ,"913","913374     ","            ","EK 145320 GASKET 29 X .7 ",.50        
817  ,1438  ,"913","913377     ","            ","EK 145320 GASKET 30 X .5 ",.50        
817  ,1438  ,"913","913378     ","            ","EK 145320 GASKET 30 X .6 ",.50        
817  ,1438  ,"913","913871     ","            ","#747 CAPACITOR 295-51    ",28.00      
817  ,1438  ,"913","913876     ","            ","#747 CAPACITOR 295-56    ",37.45      
817  ,1438  ,"997","997066     ","            ","MIY 2030-2035            ",4.50       
Items: 47

2016 01 23 - 05:13 PM
